Combined/rv32i_sim.vcd
$date
	Sat Jan 17 22:18:45 2026
$end
$version
	Icarus Verilog
$end
$timescale
	1ps
$end
$scope module rv32i_tb $end
$var reg 1 ! clk $end
$var reg 1 " reset $end
$scope module RV32I $end
$var wire 1 ! clk $end
$var wire 1 " reset $end
$var wire 1 # zero_mem $end
$var wire 1 $ zero_flag_ex $end
$var wire 32 % srcmux_output_B [31:0] $end
$var wire 1 & rw_wb $end
$var wire 1 ' rw_mem $end
$var wire 1 ( rw_id $end
$var wire 1 ) rw_ex $end
$var wire 5 * rs2_id [4:0] $end
$var wire 5 + rs2_ex [4:0] $end
$var wire 5 , rs1_id [4:0] $end
$var wire 5 - rs1_ex [4:0] $end
$var wire 32 . result_wb [31:0] $end
$var wire 5 / regdest_wb [4:0] $end
$var wire 5 0 regdest_mem [4:0] $end
$var wire 5 1 regdest_id [4:0] $end
$var wire 5 2 regdest_ex [4:0] $end
$var wire 32 3 read_data_wb [31:0] $end
$var wire 32 4 read_data_out_mem [31:0] $end
$var wire 32 5 rd2_mem [31:0] $end
$var wire 32 6 rd2_id_out [31:0] $end
$var wire 32 7 rd2_ex [31:0] $end
$var wire 32 8 rd1_id_out [31:0] $end
$var wire 32 9 rd1_ex [31:0] $end
$var wire 32 : pcmux_out [31:0] $end
$var wire 1 ; pc_stall $end
$var wire 32 < pc_ex [31:0] $end
$var wire 32 = pc4_wb [31:0] $end
$var wire 32 > pc4_mem [31:0] $end
$var wire 32 ? pc4_if [31:0] $end
$var wire 32 @ pc4_id [31:0] $end
$var wire 32 A pc4_ex [31:0] $end
$var wire 1 B overflow_mem $end
$var wire 1 C overflow_ex $end
$var wire 32 D output_B [31:0] $end
$var wire 32 E output_A [31:0] $end
$var wire 7 F opcode_id [6:0] $end
$var wire 1 G neg_mem $end
$var wire 1 H neg_ex $end
$var wire 1 I mw_mem $end
$var wire 1 J mw_id $end
$var wire 1 K mw_ex $end
$var wire 2 L mtr_wb [1:0] $end
$var wire 2 M mtr_mem [1:0] $end
$var wire 2 N mtr_id [1:0] $end
$var wire 2 O mtr_ex [1:0] $end
$var wire 1 P mr_mem $end
$var wire 1 Q mr_id $end
$var wire 1 R mr_ex $end
$var wire 1 S jr_mem $end
$var wire 1 T jr_id $end
$var wire 1 U jr_ex $end
$var wire 1 V j_mem $end
$var wire 1 W j_id $end
$var wire 1 X j_ex $end
$var wire 32 Y instr_if [31:0] $end
$var wire 32 Z instr_id [31:0] $end
$var wire 1 [ instr30_id $end
$var wire 1 \ instr30_ex $end
$var wire 32 ] imm_wb [31:0] $end
$var wire 32 ^ imm_val_id [31:0] $end
$var wire 32 _ imm_mem [31:0] $end
$var wire 32 ` imm_ex [31:0] $end
$var wire 32 a imm_addr_ex [31:0] $end
$var wire 1 b if_id_stall $end
$var wire 1 c if_id_flush $end
$var wire 1 d id_ex_flush $end
$var wire 2 e fwdB [1:0] $end
$var wire 2 f fwdA [1:0] $end
$var wire 3 g funct3_mem [2:0] $end
$var wire 3 h funct3_id [2:0] $end
$var wire 3 i funct3_ex [2:0] $end
$var wire 1 j ex_mem_flush $end
$var wire 1 k carry_mem $end
$var wire 1 l carry_ex $end
$var wire 1 m br_mem $end
$var wire 1 n br_id $end
$var wire 1 o br_ex $end
$var wire 32 p br_addr_mem [31:0] $end
$var wire 32 q bj_addr_out [31:0] $end
$var wire 1 r PCsrc_mem $end
$var wire 32 s PC_OUT_if [31:0] $end
$var wire 32 t PC_OUT_id [31:0] $end
$var wire 1 u ALUsrc_id $end
$var wire 1 v ALUsrc_ex $end
$var wire 2 w ALUop_id [1:0] $end
$var wire 2 x ALUop_ex [1:0] $end
$var wire 4 y ALUctrl [3:0] $end
$var wire 32 z ALU_result_wb [31:0] $end
$var wire 32 { ALU_result_mem [31:0] $end
$var wire 32 | ALU_result_ex [31:0] $end
$scope module ALUCONTROL $end
$var wire 1 \ funct7_30 $end
$var wire 3 } funct3 [2:0] $end
$var wire 2 ~ ALUop [1:0] $end
$var parameter 4 !" ADD $end
$var parameter 4 "" AND $end
$var parameter 4 #" NOR $end
$var parameter 4 $" OR $end
$var parameter 4 %" SLL $end
$var parameter 4 &" SLT $end
$var parameter 4 '" SLTU $end
$var parameter 4 (" SRA $end
$var parameter 4 )" SRL $end
$var parameter 4 *" SUB $end
$var parameter 4 +" XOR $end
$var reg 4 ," ALUctrl [3:0] $end
$upscope $end
$scope module ALUEX $end
$var wire 4 -" ALUctrl [3:0] $end
$var wire 1 l carry $end
$var wire 1 C overflow $end
$var wire 1 $ zero $end
$var wire 33 ." sub_result [32:0] $end
$var wire 1 H neg $end
$var wire 33 /" add_result [32:0] $end
$var wire 32 0" B [31:0] $end
$var wire 32 1" A [31:0] $end
$var reg 32 2" result [31:0] $end
$upscope $end
$scope module ALUSRC $end
$var wire 32 3" rd2 [31:0] $end
$var wire 32 4" imm [31:0] $end
$var wire 1 v alusrc $end
$var reg 32 5" muxout [31:0] $end
$upscope $end
$scope module BJMUX $end
$var wire 1 S jr $end
$var wire 32 6" adder_mux_result_mem [31:0] $end
$var wire 32 7" ALU_result_mem [31:0] $end
$var reg 32 8" bj_addr_out [31:0] $end
$upscope $end
$scope module BRANCH_JUMP_UNIT $end
$var wire 1 9" slt $end
$var wire 1 :" zero $end
$var wire 1 ;" ult $end
$var wire 1 B overflow $end
$var wire 1 G neg $end
$var wire 1 S jr $end
$var wire 1 V j $end
$var wire 3 <" funct3 [2:0] $end
$var wire 1 k carry $end
$var wire 1 m br $end
$var reg 1 r PCsrc $end
$upscope $end
$scope module CONTROL $end
$var wire 7 =" opcode [6:0] $end
$var reg 2 >" ALUo [1:0] $end
$var reg 1 u ALUs $end
$var reg 1 n br $end
$var reg 1 W j $end
$var reg 1 T jr $end
$var reg 1 Q mr $end
$var reg 2 ?" mtr [1:0] $end
$var reg 1 J mw $end
$var reg 1 ( rw $end
$upscope $end
$scope module DATAMEM $end
$var wire 1 ! clk $end
$var wire 32 @" rd2 [31:0] $end
$var wire 1 I mw $end
$var wire 1 P mr $end
$var wire 3 A" funct3 [2:0] $end
$var wire 32 B" address [31:0] $end
$var reg 32 C" rs2_out [31:0] $end
$upscope $end
$scope module EXMEMREG $end
$var wire 32 D" ALU_result_in [31:0] $end
$var wire 1 l carry_in $end
$var wire 1 ! clk $end
$var wire 1 H neg_in $end
$var wire 1 C overflow_in $end
$var wire 1 " reset $end
$var wire 1 $ zero_in $end
$var wire 1 ) rw_in $end
$var wire 5 E" regdest_in [4:0] $end
$var wire 32 F" rd2_in [31:0] $end
$var wire 32 G" pc4_in [31:0] $end
$var wire 1 K mw_in $end
$var wire 2 H" mtr_in [1:0] $end
$var wire 1 R mr_in $end
$var wire 1 U jr_in $end
$var wire 1 X j_in $end
$var wire 32 I" imm_in [31:0] $end
$var wire 3 J" funct3_in [2:0] $end
$var wire 1 j flush $end
$var wire 1 o br_in $end
$var wire 32 K" adder_result_in [31:0] $end
$var reg 32 L" ALU_result_out [31:0] $end
$var reg 32 M" adder_result_out [31:0] $end
$var reg 1 m br_out $end
$var reg 1 k carry_out $end
$var reg 3 N" funct3_out [2:0] $end
$var reg 32 O" imm_out [31:0] $end
$var reg 1 V j_out $end
$var reg 1 S jr_out $end
$var reg 1 P mr_out $end
$var reg 2 P" mtr_out [1:0] $end
$var reg 1 I mw_out $end
$var reg 1 G neg_out $end
$var reg 1 B overflow_out $end
$var reg 32 Q" pc4_out [31:0] $end
$var reg 32 R" rd2_out [31:0] $end
$var reg 5 S" regdest_out [4:0] $end
$var reg 1 ' rw_out $end
$var reg 1 # zero_out $end
$upscope $end
$scope module FORWARD $end
$var wire 5 T" rd_mem [4:0] $end
$var wire 1 ' rw_mem $end
$var wire 1 & rw_wb $end
$var wire 5 U" rs2 [4:0] $end
$var wire 5 V" rs1 [4:0] $end
$var wire 5 W" rd_wb [4:0] $end
$var reg 2 X" fwdA [1:0] $end
$var reg 2 Y" fwdB [1:0] $end
$upscope $end
$scope module HAZARDUNIT $end
$var wire 1 r PCsrc $end
$var wire 5 Z" rs1_id [4:0] $end
$var wire 5 [" rs2_id [4:0] $end
$var wire 5 \" rd_ex [4:0] $end
$var wire 1 R mr_ex $end
$var reg 1 j ex_mem_flush $end
$var reg 1 d id_ex_flush $end
$var reg 1 c if_id_flush $end
$var reg 1 b if_id_stall $end
$var reg 1 ; pc_stall $end
$upscope $end
$scope module IDEXREG $end
$var wire 1 u ALUSrc_in $end
$var wire 2 ]" ALU_Op_in [1:0] $end
$var wire 1 n br_in $end
$var wire 1 ! clk $end
$var wire 1 d flush $end
$var wire 3 ^" funct3_in [2:0] $end
$var wire 1 [ instr30_in $end
$var wire 1 W j_in $end
$var wire 1 T jr_in $end
$var wire 1 Q mr_in $end
$var wire 2 _" mtr_in [1:0] $end
$var wire 1 J mw_in $end
$var wire 5 `" regdest_in [4:0] $end
$var wire 1 " reset $end
$var wire 5 a" rs1_in [4:0] $end
$var wire 5 b" rs2_in [4:0] $end
$var wire 1 ( rw_in $end
$var wire 32 c" rd2_in [31:0] $end
$var wire 32 d" rd1_in [31:0] $end
$var wire 32 e" pc_in [31:0] $end
$var wire 32 f" pc4_in [31:0] $end
$var wire 32 g" imm_in [31:0] $end
$var reg 1 v ALUSrc_out $end
$var reg 2 h" ALU_Op_out [1:0] $end
$var reg 1 o br_out $end
$var reg 3 i" funct3_out [2:0] $end
$var reg 32 j" imm_out [31:0] $end
$var reg 1 \ instr30_out $end
$var reg 1 X j_out $end
$var reg 1 U jr_out $end
$var reg 1 R mr_out $end
$var reg 2 k" mtr_out [1:0] $end
$var reg 1 K mw_out $end
$var reg 32 l" pc4_out [31:0] $end
$var reg 32 m" pc_out [31:0] $end
$var reg 32 n" rd1_out [31:0] $end
$var reg 32 o" rd2_out [31:0] $end
$var reg 5 p" regdest_out [4:0] $end
$var reg 5 q" rs1_out [4:0] $end
$var reg 5 r" rs2_out [4:0] $end
$var reg 1 ) rw_out $end
$upscope $end
$scope module IFIDReg $end
$var wire 1 ! clk $end
$var wire 1 c flush $end
$var wire 1 " reset $end
$var wire 1 b stall $end
$var wire 32 s" pc_in [31:0] $end
$var wire 32 t" pc4_in [31:0] $end
$var wire 32 u" instr_in [31:0] $end
$var reg 32 v" instr_out [31:0] $end
$var reg 32 w" pc4_out [31:0] $end
$var reg 32 x" pc_out [31:0] $end
$upscope $end
$scope module IFadder $end
$var wire 32 y" pc [31:0] $end
$var reg 32 z" pc4_out [31:0] $end
$upscope $end
$scope module IFmux $end
$var wire 1 r PCsrc $end
$var wire 32 {" br_addr [31:0] $end
$var wire 32 |" pc4 [31:0] $end
$var reg 32 }" pcmux_out [31:0] $end
$upscope $end
$scope module IMMADDER $end
$var wire 32 ~" imm [31:0] $end
$var wire 32 !# pc [31:0] $end
$var reg 32 "# result [31:0] $end
$upscope $end
$scope module IMMGEN $end
$var wire 32 ## instr [31:0] $end
$var parameter 7 $# ALUUTYPE $end
$var parameter 7 %# BTYPE $end
$var parameter 7 &# ILTYPE $end
$var parameter 7 '# IRTYPE $end
$var parameter 7 (# JRTYPE $end
$var parameter 7 )# JTYPE $end
$var parameter 7 *# STYPE $end
$var parameter 7 +# UPPERUTYPE $end
$var reg 32 ,# immout [31:0] $end
$var reg 7 -# opcode [6:0] $end
$upscope $end
$scope module MEMWBREG $end
$var wire 32 .# ALU_result_in [31:0] $end
$var wire 1 ! clk $end
$var wire 32 /# imm_in [31:0] $end
$var wire 2 0# mtr_in [1:0] $end
$var wire 32 1# pc4_in [31:0] $end
$var wire 32 2# read_data_in [31:0] $end
$var wire 5 3# regdest_in [4:0] $end
$var wire 1 " reset $end
$var wire 1 ' rw_in $end
$var reg 32 4# ALU_result_out [31:0] $end
$var reg 32 5# imm_out [31:0] $end
$var reg 2 6# mtr_out [1:0] $end
$var reg 32 7# pc4_out [31:0] $end
$var reg 32 8# read_data_out [31:0] $end
$var reg 5 9# regdest_out [4:0] $end
$var reg 1 & rw_out $end
$upscope $end
$scope module MUXA $end
$var wire 32 :# ALU_result_mem [31:0] $end
$var wire 2 ;# fwdA [1:0] $end
$var wire 32 <# rd1 [31:0] $end
$var wire 32 =# result_wb [31:0] $end
$var reg 32 ># output_A [31:0] $end
$upscope $end
$scope module MUXB $end
$var wire 32 ?# ALU_result_mem [31:0] $end
$var wire 2 @# fwdB [1:0] $end
$var wire 32 A# rd2 [31:0] $end
$var wire 32 B# result_wb [31:0] $end
$var reg 32 C# output_B [31:0] $end
$upscope $end
$scope module PC_UNIT $end
$var wire 32 D# PC_IN [31:0] $end
$var wire 1 ! clk $end
$var wire 1 ; pc_stall $end
$var wire 1 " reset $end
$var reg 32 E# PC_OUT [31:0] $end
$upscope $end
$scope module REG $end
$var wire 1 ! clk $end
$var wire 5 F# rr1 [4:0] $end
$var wire 5 G# rr2 [4:0] $end
$var wire 1 & we $end
$var wire 5 H# wr [4:0] $end
$var wire 32 I# wd [31:0] $end
$var wire 32 J# rd2 [31:0] $end
$var wire 32 K# rd1 [31:0] $end
$upscope $end
$scope module WBMUX $end
$var wire 32 L# ALU_result [31:0] $end
$var wire 32 M# data_mem [31:0] $end
$var wire 32 N# imm_in [31:0] $end
$var wire 2 O# mtr [1:0] $end
$var wire 32 P# pc4 [31:0] $end
$var reg 32 Q# wb_out [31:0] $end
$upscope $end
$scope module iMem $end
$var wire 32 R# address [31:0] $end
$var wire 32 S# instruction [31:0] $end
$upscope $end
$upscope $end
$scope task dump_registers $end
$var integer 32 T# i [31:0] $end
$upscope $end
$upscope $end
$enddefinitions $end
$comment Show the parameter values. $end
$dumpall
b110111 +#
b100011 *#
b1101111 )#
b1100111 (#
b10011 '#
b11 &#
b1100011 %#
b10111 $#
b11 +"
b110 *"
b1010 )"
b1101 ("
b1000 '"
b111 &"
b100 %"
b1 $"
b1100 #"
b0 ""
b10 !"
$end
#0
$dumpvars
bx T#
bx S#
bx R#
bx Q#
bx P#
bx O#
bx N#
bx M#
bx L#
bx K#
bx J#
bx I#
bx H#
bx G#
bx F#
bx E#
bx D#
bx C#
bx B#
bx A#
bx @#
bx ?#
bx >#
bx =#
bx <#
bx ;#
bx :#
bx 9#
bx 8#
bx 7#
bx 6#
bx 5#
bx 4#
bx 3#
bx 2#
bx 1#
bx 0#
bx /#
bx .#
bx -#
bx ,#
bx ##
bx "#
bx !#
bx ~"
bx }"
bx |"
bx {"
bx z"
bx y"
bx x"
bx w"
bx v"
bx u"
bx t"
bx s"
bx r"
bx q"
bx p"
bx o"
bx n"
bx m"
bx l"
bx k"
bx j"
bx i"
bx h"
bx g"
bx f"
bx e"
bx d"
bx c"
bx b"
bx a"
bx `"
bx _"
bx ^"
bx ]"
bx \"
bx ["
bx Z"
bx Y"
bx X"
bx W"
bx V"
bx U"
bx T"
bx S"
bx R"
bx Q"
bx P"
bx O"
bx N"
bx M"
bx L"
bx K"
bx J"
bx I"
bx H"
bx G"
bx F"
bx E"
bx D"
bx C"
bx B"
bx A"
bx @"
bx ?"
bx >"
bx ="
bx <"
x;"
z:"
x9"
bx 8"
bx 7"
bx 6"
bx 5"
bx 4"
bx 3"
bx 2"
bx 1"
bx 0"
bx /"
bx ."
bx -"
bx ,"
bx ~
bx }
bx |
bx {
bx z
bx y
bx x
bx w
xv
xu
bx t
bx s
0r
bx q
bx p
xo
xn
xm
xl
xk
0j
bx i
bx h
bx g
bx f
bx e
0d
0c
0b
bx a
bx `
bx _
bx ^
bx ]
x\
x[
bx Z
bx Y
xX
xW
xV
xU
xT
xS
xR
xQ
xP
bx O
bx N
bx M
bx L
xK
xJ
xI
xH
xG
bx F
bx E
bx D
xC
xB
bx A
bx @
bx ?
bx >
bx =
bx <
0;
bx :
bx 9
bx 8
bx 7
bx 6
bx 5
bx 4
bx 3
bx 2
bx 1
bx 0
bx /
bx .
bx -
bx ,
bx +
bx *
x)
x(
x'
x&
bx %
x$
x#
1"
0!
$end
#5000
0C
1l
0H
0T
0W
b0 N
b0 ?"
b0 _"
1(
0J
0Q
0n
1u
b11 w
b11 >"
b11 ]"
b0 6
b0 c"
b0 J#
b0 8
b0 d"
b0 K#
1$
b0 |
b0 2"
b0 D"
b100 :
b100 }"
b100 D#
b101000000000000010010011 Y
b101000000000000010010011 u"
b101000000000000010010011 S#
b100 ?
b100 t"
b100 z"
b100 |"
b0 ^
b0 g"
b0 ,#
b10011 -#
b0 1
b0 `"
0[
b0 h
b0 ^"
b10011 F
b10011 ="
b0 *
b0 ["
b0 b"
b0 G#
b0 ,
b0 Z"
b0 a"
b0 F#
b0 /"
b100000000000000000000000000000000 ."
b0 %
b0 0"
b0 5"
b10 y
b10 ,"
b10 -"
b0 a
b0 K"
b0 "#
09"
b0 E
b0 1"
b0 >#
b0 D
b0 3"
b0 F"
b0 C#
b0 q
b0 8"
b0 {"
b0 4
b0 C"
b0 2#
b0 e
b0 Y"
b0 @#
b0 f
b0 X"
b0 ;#
b0 .
b0 =#
b0 B#
b0 I#
b0 Q#
b0 s
b0 s"
b0 y"
b0 E#
b0 R#
b10011 Z
b10011 v"
b10011 ##
b0 @
b0 f"
b0 w"
b0 t
b0 e"
b0 x"
b0 +
b0 U"
b0 r"
b0 -
b0 V"
b0 q"
b0 2
b0 E"
b0 \"
b0 p"
0\
b0 i
b0 }
b0 J"
b0 i"
b0 `
b0 4"
b0 I"
b0 j"
b0 ~"
b0 7
b0 o"
b0 A#
b0 9
b0 n"
b0 <#
0U
0X
b0 O
b0 H"
b0 k"
0)
0K
0R
0o
0v
b0 x
b0 ~
b0 h"
b0 A
b0 G"
b0 l"
b0 <
b0 m"
b0 !#
0G
0#
1;"
0k
0B
b0 {
b0 7"
b0 B"
b0 L"
b0 .#
b0 :#
b0 ?#
b0 p
b0 6"
b0 M"
b0 0
b0 S"
b0 T"
b0 3#
b0 g
b0 <"
b0 A"
b0 N"
b0 _
b0 O"
b0 /#
b0 5
b0 @"
b0 R"
0S
0V
b0 M
b0 P"
b0 0#
0'
0I
0P
0m
b0 >
b0 Q"
b0 1#
b0 /
b0 W"
b0 9#
b0 H#
b0 ]
b0 5#
b0 N#
b0 z
b0 4#
b0 L#
b0 3
b0 8#
b0 M#
b0 L
b0 6#
b0 O#
0&
b0 =
b0 7#
b0 P#
1!
#10000
0!
#15000
1!
#20000
0!
0"
#25000
b1000 :
b1000 }"
b1000 D#
bx 6
bx c"
bx J#
b10100000000000100010011 Y
b10100000000000100010011 u"
b10100000000000100010011 S#
b1000 ?
b1000 t"
b1000 z"
b1000 |"
b1010 ^
b1010 g"
b1010 ,#
b1 1
b1 `"
b1010 *
b1010 ["
b1010 b"
b1010 G#
b100 s
b100 s"
b100 y"
b100 E#
b100 R#
b101000000000000010010011 Z
b101000000000000010010011 v"
b101000000000000010010011 ##
b100 @
b100 f"
b100 w"
1)
1v
b11 x
b11 ~
b11 h"
1#
0;"
1k
1!
#30000
0!
#35000
0l
0$
b1010 |
b1010 2"
b1010 D"
b1100 :
b1100 }"
b1100 D#
b1010 /"
b11111111111111111111111111110110 ."
b1010 %
b1010 0"
b1010 5"
b1010 a
b1010 K"
b1010 "#
bx D
bx 3"
bx F"
bx C#
b101 ^
b101 g"
b101 ,#
b10 1
b10 `"
b101 *
b101 ["
b101 b"
b101 G#
b1000001000000110110011 Y
b1000001000000110110011 u"
b1000001000000110110011 S#
b1100 ?
b1100 t"
b1100 z"
b1100 |"
1'
b1010 +
b1010 U"
b1010 r"
b1 2
b1 E"
b1 \"
b1 p"
b1010 `
b1010 4"
b1010 I"
b1010 j"
b1010 ~"
bx 7
bx o"
bx A#
b100 A
b100 G"
b100 l"
b10100000000000100010011 Z
b10100000000000100010011 v"
b10100000000000100010011 ##
b1000 @
b1000 f"
b1000 w"
b100 t
b100 e"
b100 x"
b1000 s
b1000 s"
b1000 y"
b1000 E#
b1000 R#
1!
#40000
0!
#45000
bx 8
bx d"
bx K#
1(
0u
b10 w
b10 >"
b10 ]"
b101 |
b101 2"
b101 D"
b10000 :
b10000 }"
b10000 D#
b1000000001000001000001000110011 Y
b1000000001000001000001000110011 u"
b1000000001000001000001000110011 S#
b10000 ?
b10000 t"
b10000 z"
b10000 |"
b0 ^
b0 g"
b0 ,#
b110011 -#
b11 1
b11 `"
b110011 F
b110011 ="
b10 *
b10 ["
b10 b"
b10 G#
b1 ,
b1 Z"
b1 a"
b1 F#
b101 /"
b11111111111111111111111111111011 ."
b101 %
b101 0"
b101 5"
b1001 a
b1001 K"
b1001 "#
b1010 q
b1010 8"
b1010 {"
b1100 s
b1100 s"
b1100 y"
b1100 E#
b1100 R#
b1000001000000110110011 Z
b1000001000000110110011 v"
b1000001000000110110011 ##
b1100 @
b1100 f"
b1100 w"
b1000 t
b1000 e"
b1000 x"
b101 +
b101 U"
b101 r"
b10 2
b10 E"
b10 \"
b10 p"
b101 `
b101 4"
b101 I"
b101 j"
b101 ~"
b1000 A
b1000 G"
b1000 l"
b100 <
b100 m"
b100 !#
0#
1;"
0k
b1010 {
b1010 7"
b1010 B"
b1010 L"
b1010 .#
b1010 :#
b1010 ?#
b1010 p
b1010 6"
b1010 M"
b1 0
b1 S"
b1 T"
b1 3#
b1010 _
b1010 O"
b1010 /#
bx 5
bx @"
bx R"
b100 >
b100 Q"
b100 1#
1&
1!
#50000
0!
#55000
0C
b1010 8
b1010 d"
b1010 K#
1l
0H
0$
b1111 |
b1111 2"
b1111 D"
b10100 :
b10100 }"
b10100 D#
b1010 .
b1010 =#
b1010 B#
b1010 I#
b1010 Q#
b101 D
b101 3"
b101 F"
b101 C#
b1001 q
b1001 8"
b1001 {"
b1 e
b1 Y"
b1 @#
b10 f
b10 X"
b10 ;#
b1010 E
b1010 1"
b1010 >#
b1111 /"
b100000000000000000000000000000101 ."
b101 %
b101 0"
b101 5"
b1000 a
b1000 K"
b1000 "#
b100 1
b100 `"
1[
b1000001111001010110011 Y
b1000001111001010110011 u"
b1000001111001010110011 S#
b10100 ?
b10100 t"
b10100 z"
b10100 |"
b1 /
b1 W"
b1 9#
b1 H#
b1010 ]
b1010 5#
b1010 N#
b1010 z
b1010 4#
b1010 L#
b100 =
b100 7#
b100 P#
b101 {
b101 7"
b101 B"
b101 L"
b101 .#
b101 :#
b101 ?#
b1001 p
b1001 6"
b1001 M"
b10 0
b10 S"
b10 T"
b10 3#
b101 _
b101 O"
b101 /#
b1000 >
b1000 Q"
b1000 1#
b10 +
b10 U"
b10 r"
b1 -
b1 V"
b1 q"
b11 2
b11 E"
b11 \"
b11 p"
b0 `
b0 4"
b0 I"
b0 j"
b0 ~"
bx 9
bx n"
bx <#
0v
b10 x
b10 ~
b10 h"
b1100 A
b1100 G"
b1100 l"
b1000 <
b1000 m"
b1000 !#
b1000000001000001000001000110011 Z
b1000000001000001000001000110011 v"
b1000000001000001000001000110011 ##
b10000 @
b10000 f"
b10000 w"
b1100 t
b1100 e"
b1100 x"
b10000 s
b10000 s"
b10000 y"
b10000 E#
b10000 R#
1!
#60000
0!
#65000
b101 6
b101 c"
b101 J#
b101 |
b101 2"
b101 D"
b11000 :
b11000 }"
b11000 D#
b1100000010001000100011 Y
b1100000010001000100011 u"
b1100000010001000100011 S#
b11000 ?
b11000 t"
b11000 z"
b11000 |"
b101 1
b101 `"
0[
b111 h
b111 ^"
b110 y
b110 ,"
b110 -"
b1100 a
b1100 K"
b1100 "#
b1000 q
b1000 8"
b1000 {"
b10 e
b10 Y"
b10 @#
b0 f
b0 X"
b0 ;#
b101 .
b101 =#
b101 B#
b101 I#
b101 Q#
b10100 s
b10100 s"
b10100 y"
b10100 E#
b10100 R#
b1000001111001010110011 Z
b1000001111001010110011 v"
b1000001111001010110011 ##
b10100 @
b10100 f"
b10100 w"
b10000 t
b10000 e"
b10000 x"
b100 2
b100 E"
b100 \"
b100 p"
1\
b1010 9
b1010 n"
b1010 <#
b10000 A
b10000 G"
b10000 l"
b1100 <
b1100 m"
b1100 !#
0;"
1k
b1111 {
b1111 7"
b1111 B"
b1111 L"
b1111 .#
b1111 :#
b1111 ?#
b1000 p
b1000 6"
b1000 M"
b11 0
b11 S"
b11 T"
b11 3#
b0 _
b0 O"
b0 /#
b101 5
b101 @"
b101 R"
b1100 >
b1100 Q"
b1100 1#
b10 /
b10 W"
b10 9#
b10 H#
b101 ]
b101 5#
b101 N#
b101 z
b101 4#
b101 L#
b1000 =
b1000 7#
b1000 P#
1!
#70000
0!
#75000
b1111 6
b1111 c"
b1111 J#
1$
b0 |
b0 2"
b0 D"
1J
1u
0(
b0 w
b0 >"
b0 ]"
b0 8
b0 d"
b0 K#
b11100 :
b11100 }"
b11100 D#
b1111 .
b1111 =#
b1111 B#
b1111 I#
b1111 Q#
b1100 q
b1100 8"
b1100 {"
b0 e
b0 Y"
b0 @#
b0 y
b0 ,"
b0 -"
b10000 a
b10000 K"
b10000 "#
b100 ^
b100 g"
b100 ,#
b100011 -#
b100 1
b100 `"
b10 h
b10 ^"
b100011 F
b100011 ="
b11 *
b11 ["
b11 b"
b11 G#
b0 ,
b0 Z"
b0 a"
b0 F#
b10000000010001100000011 Y
b10000000010001100000011 u"
b10000000010001100000011 S#
b11100 ?
b11100 t"
b11100 z"
b11100 |"
b11 /
b11 W"
b11 9#
b11 H#
b0 ]
b0 5#
b0 N#
b1111 z
b1111 4#
b1111 L#
b1100 =
b1100 7#
b1100 P#
b101 {
b101 7"
b101 B"
b101 L"
b101 .#
b101 :#
b101 ?#
b1100 p
b1100 6"
b1100 M"
b100 0
b100 S"
b100 T"
b100 3#
b10000 >
b10000 Q"
b10000 1#
b101 2
b101 E"
b101 \"
b101 p"
0\
b111 i
b111 }
b111 J"
b111 i"
b101 7
b101 o"
b101 A#
b10100 A
b10100 G"
b10100 l"
b10000 <
b10000 m"
b10000 !#
b1100000010001000100011 Z
b1100000010001000100011 v"
b1100000010001000100011 ##
b11000 @
b11000 f"
b11000 w"
b10100 t
b10100 e"
b10100 x"
b11000 s
b11000 s"
b11000 y"
b11000 E#
b11000 R#
1!
#80000
0!
#85000
0l
b101 6
b101 c"
b101 J#
b1 N
b1 ?"
b1 _"
1(
1Q
0J
1u
0$
b100 |
b100 2"
b100 D"
b100000 :
b100000 }"
b100000 D#
b1110010011 Y
b1110010011 u"
b1110010011 S#
b100000 ?
b100000 t"
b100000 z"
b100000 |"
b11 -#
b110 1
b110 `"
b11 F
b11 ="
b100 *
b100 ["
b100 b"
b100 G#
b100 %
b100 0"
b100 5"
b10 y
b10 ,"
b10 -"
b11000 a
b11000 K"
b11000 "#
b100 /"
b11111111111111111111111111111100 ."
b0 E
b0 1"
b0 >#
b1111 D
b1111 3"
b1111 F"
b1111 C#
b10000 q
b10000 8"
b10000 {"
b101 .
b101 =#
b101 B#
b101 I#
b101 Q#
b11100 s
b11100 s"
b11100 y"
b11100 E#
b11100 R#
b10000000010001100000011 Z
b10000000010001100000011 v"
b10000000010001100000011 ##
b11100 @
b11100 f"
b11100 w"
b11000 t
b11000 e"
b11000 x"
b11 +
b11 U"
b11 r"
b0 -
b0 V"
b0 q"
b100 2
b100 E"
b100 \"
b100 p"
b10 i
b10 }
b10 J"
b10 i"
b100 `
b100 4"
b100 I"
b100 j"
b100 ~"
b1111 7
b1111 o"
b1111 A#
b0 9
b0 n"
b0 <#
0)
1K
1v
b0 x
b0 ~
b0 h"
b11000 A
b11000 G"
b11000 l"
b10100 <
b10100 m"
b10100 !#
1#
b0 {
b0 7"
b0 B"
b0 L"
b0 .#
b0 :#
b0 ?#
b10000 p
b10000 6"
b10000 M"
b101 0
b101 S"
b101 T"
b101 3#
b111 g
b111 <"
b111 A"
b111 N"
b10100 >
b10100 Q"
b10100 1#
b100 /
b100 W"
b100 9#
b100 H#
b101 z
b101 4#
b101 L#
b10000 =
b10000 7#
b10000 P#
1!
#90000
0!
#95000
b11 w
b11 >"
b11 ]"
b0 N
b0 ?"
b0 _"
1(
0Q
1u
b0 6
b0 c"
b0 J#
b100100 :
b100100 }"
b100100 D#
b0 .
b0 =#
b0 B#
b0 I#
b0 Q#
b11000 q
b11000 8"
b11000 {"
b101 D
b101 3"
b101 F"
b101 C#
b11100 a
b11100 K"
b11100 "#
b0 ^
b0 g"
b0 ,#
b10011 -#
b111 1
b111 `"
b0 h
b0 ^"
b10011 F
b10011 ="
b0 *
b0 ["
b0 b"
b0 G#
b1100000000010000010011 Y
b1100000000010000010011 u"
b1100000000010000010011 S#
b100100 ?
b100100 t"
b100100 z"
b100100 |"
b101 /
b101 W"
b101 9#
b101 H#
b0 z
b0 4#
b0 L#
b10100 =
b10100 7#
b10100 P#
0#
1;"
0k
b100 {
b100 7"
b100 B"
b100 L"
b100 .#
b100 :#
b100 ?#
b11000 p
b11000 6"
b11000 M"
b100 0
b100 S"
b100 T"
b100 3#
b10 g
b10 <"
b10 A"
b10 N"
b100 _
b100 O"
b100 /#
b1111 5
b1111 @"
b1111 R"
0'
1I
b11000 >
b11000 Q"
b11000 1#
b100 +
b100 U"
b100 r"
b110 2
b110 E"
b110 \"
b110 p"
b101 7
b101 o"
b101 A#
b1 O
b1 H"
b1 k"
1)
0K
1R
b11100 A
b11100 G"
b11100 l"
b11000 <
b11000 m"
b11000 !#
b1110010011 Z
b1110010011 v"
b1110010011 ##
b100000 @
b100000 f"
b100000 w"
b11100 t
b11100 e"
b11100 x"
b100000 s
b100000 s"
b100000 y"
b100000 E#
b100000 R#
1!
#100000
0!
